Case #1: GABRIEL
Case #2: RICHARD
Case #3: RICHARD
Case #4: GABRIEL
Case #5: RICHARD
Case #6: GABRIEL
Case #7: RICHARD
Case #8: GABRIEL
Case #9: GABRIEL
Case #10: RICHARD
Case #11: GABRIEL
Case #12: RICHARD
Case #13: RICHARD
Case #14: GABRIEL
Case #15: RICHARD
Case #16: RICHARD
Case #17: GABRIEL
Case #18: GABRIEL
Case #19: GABRIEL
Case #20: GABRIEL
Case #21: RICHARD
Case #22: GABRIEL
Case #23: RICHARD
Case #24: RICHARD
Case #25: GABRIEL
Case #26: GABRIEL
Case #27: GABRIEL
Case #28: GABRIEL
Case #29: GABRIEL
Case #30: GABRIEL
Case #31: GABRIEL
Case #32: GABRIEL
Case #33: GABRIEL
Case #34: GABRIEL
Case #35: GABRIEL
Case #36: RICHARD
Case #37: RICHARD
Case #38: GABRIEL
Case #39: RICHARD
Case #40: RICHARD
Case #41: GABRIEL
Case #42: RICHARD
Case #43: GABRIEL
Case #44: RICHARD
Case #45: RICHARD
Case #46: GABRIEL
Case #47: GABRIEL
Case #48: RICHARD
Case #49: GABRIEL
Case #50: GABRIEL
Case #51: RICHARD
Case #52: GABRIEL
Case #53: GABRIEL
Case #54: GABRIEL
Case #55: RICHARD
Case #56: RICHARD
Case #57: GABRIEL
Case #58: RICHARD
Case #59: RICHARD
Case #60: GABRIEL
Case #61: GABRIEL
Case #62: RICHARD
Case #63: RICHARD
Case #64: RICHARD
