Case #1: GABRIEL
Case #2: RICHARD
Case #3: RICHARD
Case #4: GABRIEL
Case #5: GABRIEL
Case #6: RICHARD
Case #7: GABRIEL
Case #8: RICHARD
Case #9: RICHARD
Case #10: GABRIEL
Case #11: GABRIEL
Case #12: GABRIEL
Case #13: GABRIEL
Case #14: RICHARD
Case #15: GABRIEL
Case #16: RICHARD
Case #17: GABRIEL
Case #18: RICHARD
Case #19: GABRIEL
Case #20: GABRIEL
Case #21: GABRIEL
Case #22: GABRIEL
Case #23: RICHARD
Case #24: RICHARD
Case #25: GABRIEL
Case #26: RICHARD
Case #27: GABRIEL
Case #28: GABRIEL
Case #29: GABRIEL
Case #30: GABRIEL
Case #31: RICHARD
Case #32: RICHARD
Case #33: GABRIEL
Case #34: RICHARD
Case #35: GABRIEL
Case #36: RICHARD
Case #37: RICHARD
Case #38: GABRIEL
Case #39: GABRIEL
Case #40: GABRIEL
Case #41: GABRIEL
Case #42: RICHARD
Case #43: RICHARD
Case #44: GABRIEL
Case #45: RICHARD
Case #46: RICHARD
Case #47: GABRIEL
Case #48: RICHARD
Case #49: RICHARD
Case #50: GABRIEL
Case #51: RICHARD
Case #52: GABRIEL
Case #53: GABRIEL
Case #54: RICHARD
Case #55: RICHARD
Case #56: GABRIEL
Case #57: GABRIEL
Case #58: GABRIEL
Case #59: RICHARD
Case #60: GABRIEL
Case #61: GABRIEL
Case #62: GABRIEL
Case #63: RICHARD
Case #64: RICHARD
