20
10
..........
..........
####......
####......
####......
####......
..........
..........
..........
.........#
10
..........
..........
..........
.....#....
..........
..#.......
..........
..........
..........
..........
5
#####
#####
#####
#####
#####
20
....................
....................
....................
....................
....................
....................
....................
....................
....................
....................
....................
....................
....................
....................
....................
....................
....................
....................
.......##...........
.......##...........
20
..############......
..############......
..############......
..############......
..############......
..############......
..############......
..############......
..############......
..############......
..############......
....................
....................
....................
....................
....................
....................
....................
....................
....................
1
#
20
.###################
####################
####################
####################
####################
####################
####################
####################
####################
####################
####################
####################
####################
####################
####################
####################
####################
####################
####################
####################
20
....................
....................
....................
....................
########..#######...
########..########..
##........##....##..
##........##....##..
########..#######...
########..########..
##........##....##..
##........##....##..
##........########..
##........#######...
....................
....................
....................
....................
....................
....................
20
....................
################....
################....
################....
################....
################....
################....
################....
################....
################....
################....
################....
################....
################....
################....
################....
....................
....................
....................
....................
20
####################
####################
####################
####################
####################
####################
####################
####################
####################
####################
####################
####################
####################
####################
####################
####################
####################
####################
####################
####################
4
###.
.###
.###
....
20
####################
####################
####################
####################
####################
####################
####################
####################
####################
####################
####################
####################
####################
####################
####################
####################
####################
####################
####################
###################.
5
#####
#####
#####
#####
.....
10
..........
..........
..........
...##.....
...##.....
...##.....
..........
..........
..........
..........
4
..##
..##
....
....
10
..........
..........
.##.......
.##.......
..........
..........
......##..
......##..
..........
..........
10
..........
..........
..........
..........
..........
..........
..........
..........
..........
.........#
20
....................
....................
....................
....................
....................
....................
....................
....................
....................
....................
....................
....................
....................
..........######....
..........######....
..........######....
..........######....
..........######....
..........######....
....................
20
....................
....................
....................
....................
....................
....................
....................
....................
....................
....................
....................
.......#####........
.......#####........
.......#####........
.......#####........
....................
....................
....................
....................
....................
4
..##
..##
#...
....
