Case #1: 3
Case #2: 2
Case #3: 3
Case #4: 2
Case #5: 8
Case #6: 9
Case #7: 6
Case #8: 8
Case #9: 9
Case #10: 4
Case #11: 4
Case #12: 5
Case #13: 4
Case #14: 5
Case #15: 6
Case #16: 5
Case #17: 6
Case #18: 5
Case #19: 3
Case #20: 5
Case #21: 4
Case #22: 4
Case #23: 3
Case #24: 5
Case #25: 5
Case #26: 8
Case #27: 5
Case #28: 7
Case #29: 7
Case #30: 5
Case #31: 5
Case #32: 7
Case #33: 4
Case #34: 5
Case #35: 8
Case #36: 6
Case #37: 6
Case #38: 7
Case #39: 6
Case #40: 5
Case #41: 7
Case #42: 5
Case #43: 4
Case #44: 5
Case #45: 6
Case #46: 8
Case #47: 9
Case #48: 7
Case #49: 6
Case #50: 7
Case #51: 6
Case #52: 6
Case #53: 6
Case #54: 8
Case #55: 7
Case #56: 8
Case #57: 6
Case #58: 5
Case #59: 6
Case #60: 5
Case #61: 6
Case #62: 4
Case #63: 4
Case #64: 7
Case #65: 7
Case #66: 6
Case #67: 7
Case #68: 8
Case #69: 8
Case #70: 7
Case #71: 5
Case #72: 5
Case #73: 7
Case #74: 5
Case #75: 3
Case #76: 8
Case #77: 6
Case #78: 7
Case #79: 4
Case #80: 1
Case #81: 7
Case #82: 4
Case #83: 6
Case #84: 4
Case #85: 8
Case #86: 8
Case #87: 4
Case #88: 5
Case #89: 4
Case #90: 7
Case #91: 8
Case #92: 6
Case #93: 7
Case #94: 6
Case #95: 5
Case #96: 7
Case #97: 4
Case #98: 6
Case #99: 7
Case #100: 5