Case #1: 3
Case #2: 2
Case #3: 3
Case #4: 7
Case #5: 8
Case #6: 5
Case #7: 6
Case #8: 6
Case #9: 5
Case #10: 4
Case #11: 5
Case #12: 5
Case #13: 6
Case #14: 7
Case #15: 7
Case #16: 8
Case #17: 4
Case #18: 7
Case #19: 5
Case #20: 9
Case #21: 5
Case #22: 6
Case #23: 6
Case #24: 6
Case #25: 4
Case #26: 7
Case #27: 7
Case #28: 8
Case #29: 7
Case #30: 6
Case #31: 4
Case #32: 7
Case #33: 6
Case #34: 4
Case #35: 6
Case #36: 1
Case #37: 8
Case #38: 6
Case #39: 5
Case #40: 5
Case #41: 6
Case #42: 5
Case #43: 7
Case #44: 8
Case #45: 4
Case #46: 6
Case #47: 4
Case #48: 5
Case #49: 4
Case #50: 9
Case #51: 8
Case #52: 8
Case #53: 8
Case #54: 7
Case #55: 6
Case #56: 8
Case #57: 8
Case #58: 7
Case #59: 5
Case #60: 7
Case #61: 8
Case #62: 5
Case #63: 3
Case #64: 3
Case #65: 4
Case #66: 2
Case #67: 8
Case #68: 5
Case #69: 7
Case #70: 8
Case #71: 4
Case #72: 6
Case #73: 6
Case #74: 4
Case #75: 3
Case #76: 6
Case #77: 5
Case #78: 6
Case #79: 5
Case #80: 8
Case #81: 5
Case #82: 9
Case #83: 6
Case #84: 6
Case #85: 9
Case #86: 3
Case #87: 6
Case #88: 3
Case #89: 6
Case #90: 7
Case #91: 6
Case #92: 5
Case #93: 7
Case #94: 7
Case #95: 4
Case #96: 8
Case #97: 5
Case #98: 7
Case #99: 7
Case #100: 5
