1 15 3
2 12 9
3 3 27
3 3 9 0
3 3 3 0
3 1 1 2
Case #1: DDZ
1 34 3
2 31 9
3 22 27
3 4 9 2
3 1 3 1
3 1 1 0
Case #2: THE
1 4296473 7
2 4296466 49
3 4296417 343
4 4296074 2401
5 4293673 16807
6 4276866 117649
7 4159217 823543
8 3335674 5764801
8 41502 823543 4
8 41502 117649 0
8 7888 16807 2
8 685 2401 3
8 342 343 1
8 48 49 6
8 6 7 6
8 1 1 5
Case #3: FACEBOOK
1 4125383079316 10
2 4125383079306 100
3 4125383079206 1000
4 4125383078206 10000
5 4125383068206 100000
6 4125382968206 1000000
7 4125381968206 10000000
8 4125371968206 100000000
9 4125271968206 1000000000
10 4124271968206 10000000000
11 4114271968206 100000000000
12 4014271968206 1000000000000
13 3014271968206 10000000000000
13 14271968206 1000000000000 3
13 14271968206 100000000000 0
13 4271968206 10000000000 1
13 271968206 1000000000 4
13 71968206 100000000 2
13 1968206 10000000 7
13 968206 1000000 1
13 68206 100000 9
13 8206 10000 6
13 206 1000 8
13 6 100 2
13 6 10 0
13 1 1 5
Case #4: HACKERCUPTEAM
1 8333092520403744490 13
2 8333092520403744477 169
3 8333092520403744308 2197
4 8333092520403742111 28561
5 8333092520403713550 371293
6 8333092520403342257 4826809
7 8333092520398515448 62748517
8 8333092520335766931 815730721
9 8333092519520036210 10604499373
10 8333092508915536837 137858491849
11 8333092371057044988 1792160394037
12 8333090578896650951 23298085122481
13 8333067280811528470 302875106592253
14 8332764405704936217 3937376385699289
15 8328827029319236928 51185893014090757
16 8277641136305146171 665416609183179841
17 7612224527121966330 8650415919381337933
17 292641826106988079 665416609183179841 11
17 36712361036534294 51185893014090757 5
17 1275973565240693 3937376385699289 9
17 64473138871681 302875106592253 4
17 17876968626719 23298085122481 2
17 1747525080386 1792160394037 9
17 93223178198 137858491849 12
17 8387183214 10604499373 8
17 229876004 815730721 10
17 41630453 62748517 3
17 3015981 4826809 8
17 45637 371293 8
17 17076 28561 1
17 1697 2197 7
17 7 169 10
17 7 13 0
17 1 1 6
Case #5: WISHESYOUGOODLUCK
1 3365973428406169086 12
2 3365973428406169074 144
3 3365973428406168930 1728
4 3365973428406167202 20736
5 3365973428406146466 248832
6 3365973428405897634 2985984
7 3365973428402911650 35831808
8 3365973428367079842 429981696
9 3365973427937098146 5159780352
10 3365973422777317794 61917364224
11 3365973360859953570 743008370688
12 3365972617851582882 8916100448256
13 3365963701751134626 106993205379072
14 3365856708545755554 1283918464548864
15 3364572790081206690 15407021574586368
16 3349165768506620322 184884258895036416
17 3164281509611583906 2218611106740436992
18 945670402871146914 26623333280885243904
18 945670402871146914 2218611106740436992 0
18 21249108395964834 184884258895036416 5
18 5842086821378466 15407021574586368 1
18 706412963183010 1283918464548864 4
18 64453730908578 106993205379072 6
18 2041027770786 8916100448256 7
18 555011029410 743008370688 2
18 59672115618 61917364224 8
18 2914531746 5159780352 11
18 334641570 429981696 6
18 12155298 35831808 9
18 211362 2985984 4
18 211362 248832 0
18 4002 20736 10
18 546 1728 2
18 114 144 3
18 6 12 9
18 1 1 5
Case #6: ANDHOPESYOUHAVEFUN
