Case #1: 3
Case #2: 2
Case #3: 3
Case #4: 5
Case #5: 7
Case #6: 5
Case #7: 6
Case #8: 5
Case #9: 8
Case #10: 6
Case #11: 3
Case #12: 8
Case #13: 6
Case #14: 8
Case #15: 6
Case #16: 6
Case #17: 4
Case #18: 6
Case #19: 7
Case #20: 5
Case #21: 7
Case #22: 7
Case #23: 1
Case #24: 5
Case #25: 2
Case #26: 8
Case #27: 6
Case #28: 4
Case #29: 9
Case #30: 4
Case #31: 6
Case #32: 4
Case #33: 4
Case #34: 6
Case #35: 6
Case #36: 8
Case #37: 5
Case #38: 6
Case #39: 9
Case #40: 8
Case #41: 5
Case #42: 4
Case #43: 5
Case #44: 5
Case #45: 6
Case #46: 4
Case #47: 7
Case #48: 7
Case #49: 7
Case #50: 7
Case #51: 5
Case #52: 8
Case #53: 6
Case #54: 3
Case #55: 8
Case #56: 5
Case #57: 5
Case #58: 7
Case #59: 7
Case #60: 7
Case #61: 6
Case #62: 7
Case #63: 6
Case #64: 8
Case #65: 6
Case #66: 7
Case #67: 7
Case #68: 5
Case #69: 3
Case #70: 7
Case #71: 4
Case #72: 8
Case #73: 7
Case #74: 5
Case #75: 6
Case #76: 5
Case #77: 7
Case #78: 5
Case #79: 7
Case #80: 3
Case #81: 6
Case #82: 7
Case #83: 3
Case #84: 4
Case #85: 7
Case #86: 4
Case #87: 4
Case #88: 4
Case #89: 7
Case #90: 5
Case #91: 7
Case #92: 8
Case #93: 4
Case #94: 9
Case #95: 6
Case #96: 5
Case #97: 5
Case #98: 5
Case #99: 4
Case #100: 6
